<svg width="28" height="31" viewBox="0 0 28 31" fill="none" xmlns="http://www.w3.org/2000/svg">
<g filter="url(#filter0_d_73_32161)">
<path d="M11.7778 20.8095H16.2222C16.2222 22.0143 15.2222 23 14 23C12.7778 23 11.7778 22.0143 11.7778 20.8095ZM24 18.619V19.7143H4V18.619L6.22222 16.4286V9.85714C6.22222 6.46191 8.44444 3.50476 11.7778 2.51905V2.19048C11.7778 0.985714 12.7778 0 14 0C15.2222 0 16.2222 0.985714 16.2222 2.19048V2.51905C19.5556 3.50476 21.7778 6.46191 21.7778 9.85714V16.4286L24 18.619ZM19.5556 9.85714C19.5556 6.79048 17.1111 4.38095 14 4.38095C10.8889 4.38095 8.44444 6.79048 8.44444 9.85714V17.5238H19.5556V9.85714Z" fill="#DD2332"/>
</g>
<defs>
<filter id="filter0_d_73_32161" x="0" y="0" width="28" height="31" filterUnits="userSpaceOnUse" color-interpolation-filters="sRGB">
<feFlood flood-opacity="0" result="BackgroundImageFix"/>
<feColorMatrix in="SourceAlpha" type="matrix" values="0 0 0 0 0 0 0 0 0 0 0 0 0 0 0 0 0 0 127 0" result="hardAlpha"/>
<feOffset dy="4"/>
<feGaussianBlur stdDeviation="2"/>
<feComposite in2="hardAlpha" operator="out"/>
<feColorMatrix type="matrix" values="0 0 0 0 0 0 0 0 0 0 0 0 0 0 0 0 0 0 0.1 0"/>
<feBlend mode="normal" in2="BackgroundImageFix" result="effect1_dropShadow_73_32161"/>
<feBlend mode="normal" in="SourceGraphic" in2="effect1_dropShadow_73_32161" result="shape"/>
</filter>
</defs>
</svg>
